<?xml version="1.0" encoding="utf-8"?>
<!-- Generator: Adobe Illustrator 19.1.0, SVG Export Plug-In . SVG Version: 6.00 Build 0)  -->
<svg version="1.1" id="Layer_1" xmlns="http://www.w3.org/2000/svg" xmlns:xlink="http://www.w3.org/1999/xlink" x="0px" y="0px"
	 width="46.3px" height="40.3px" viewBox="0 0 46.3 40.3" style="enable-background:new 0 0 46.3 40.3;" xml:space="preserve">
<style type="text/css">
	.st0{stroke:#FFFFFF;stroke-miterlimit:10;}
	.st1{fill:none;stroke:#FFFFFF;stroke-width:2.5;stroke-linecap:round;stroke-linejoin:round;stroke-miterlimit:10;}
	.st2{fill:none;stroke:#FFFFFF;stroke-width:2.5;stroke-miterlimit:10;}
	.st3{fill:none;stroke:#FFFFFF;stroke-linecap:round;stroke-miterlimit:10;}
	.st4{fill:none;stroke:#FFFFFF;stroke-width:3;stroke-linecap:round;stroke-linejoin:round;stroke-miterlimit:10;}
	.st5{fill:#FFFFFF;stroke:#FFFFFF;stroke-miterlimit:10;}
</style>
<path class="st0" d="M23.2,17.1"/>
<path class="st1" d="M23.2,20"/>
<path class="st2" d="M23.2,25.8"/>
<path class="st2" d="M38.6,38.9c4-4,6.4-9.4,6.4-15.5c0-12.1-9.8-21.9-21.9-21.9c-12.1,0-21.9,9.8-21.9,21.9
	c0,6.1,2.5,11.7,6.6,15.6L38.6,38.9z"/>
<path class="st3" d="M-6.4,23.3"/>
<line class="st4" x1="23.2" y1="1.5" x2="23.2" y2="7.8"/>
<line class="st4" x1="44.7" y1="23.1" x2="38.5" y2="23.1"/>
<line class="st4" x1="7.8" y1="23.1" x2="1.6" y2="23.1"/>
<line class="st4" x1="38.4" y1="38.3" x2="34" y2="33.9"/>
<line class="st4" x1="12.3" y1="12.2" x2="7.9" y2="7.8"/>
<line class="st4" x1="38.4" y1="7.8" x2="34" y2="12.2"/>
<line class="st4" x1="12.3" y1="33.9" x2="7.9" y2="38.3"/>
<circle class="st5" cx="23.2" cy="23.1" r="3.1"/>
<polygon class="st5" points="27.3,13.1 22.2,20.4 25.6,21.6 "/>
</svg>
